Challenge B R
…
## See spec(...) for full column specifications.

train

## # A tibble: 1,460 x 81
##       Id MSSubClass MSZoning LotFrontage LotArea Street Alley LotShape
##    <int>      <int>    <chr>       <int>   <int>  <chr> <chr>    <chr>
##  1     1         60       RL          65    8450   Pave  <NA>      Reg
##  2     2         20       RL          80    9600   Pave  <NA>      Reg
##  3     3         60       RL          68   11250   Pave  <NA>      IR1
##  4     4         70       RL          60    9550   Pave  <NA>      IR1
##  5     5         60       RL          84   14260   Pave  <NA>      IR1
##  6     6         50       RL          85   14115   Pave  <NA>      IR1
##  7     7         20       RL          75   10084   Pave  <NA>      Reg
##  8     8         60       RL          NA   10382   Pave  <NA>      IR1
##  9     9         50       RM          51    6120   Pave  <NA>      Reg
## 10    10        190       RL          50    7420   Pave  <NA>      Reg
## # ... with 1,450 more rows, and 73 more variables: LandContour <chr>,
## #   Utilities <chr>, LotConfig <chr>, LandSlope <chr>, Neighborhood <chr>,
## #   Condition1 <chr>, Condition2 <chr>, BldgType <chr>, HouseStyle <chr>,
## #   OverallQual <int>, OverallCond <int>, YearBuilt <int>,
## #   YearRemodAdd <int>, RoofStyle <chr>, RoofMatl <chr>,
## #   Exterior1st <chr>, Exterior2nd <chr>, MasVnrType <chr>,
## #   MasVnrArea <int>, ExterQual <chr>, ExterCond <chr>, Foundation <chr>,
## #   BsmtQual <chr>, BsmtCond <chr>, BsmtExposure <chr>,
## #   BsmtFinType1 <chr>, BsmtFinSF1 <int>, BsmtFinType2 <chr>,
…
test[sapply(test,is.character)]<-lapply(test[sapply(test,is.character)], as.factor)

remove.vars <- test %>% summarise_all(.funs = funs(sum(is.na(.)))) %>% gather(key = "feature", value = "missing.observations") %>% filter(missing.observations > 100) %>% select(feature) %>% unlist
test <- test %>% select(-one_of(remove.vars))
test %>% summarise_all(.funs = funs(sum(is.na(.)))) %>% gather(key = "feature", value = "missing.observations") %>% filter(missing.observations > 0)

## # A tibble: 27 x 2
##         feature missing.observations
##           <chr>                <int>
##  1     MSZoning                    4
##  2    Utilities                    2
##  3  Exterior1st                    1
##  4  Exterior2nd                    1
##  5   MasVnrType                   16
##  6   MasVnrArea                   15
##  7     BsmtQual                   44
##  8     BsmtCond                   45
##  9 BsmtExposure                   44
## 10 BsmtFinType1                   42
## # ... with 17 more rows
…
Step 10 - Draw on the same plot how the MSE on training data, and test data, change when the bandwidth increases. Conclude.

mse.df <- tbl_df(data.frame(bandwidth = bdw, mse.train = mse.training.results, mse.test = mse.test.results))
mse.df

## # A tibble: 491 x 3
##    bandwidth mse.train mse.test
##        <dbl>     <dbl>    <dbl>
##  1     0.010 0.3460818 2.257278
##  2     0.011 0.3708529 2.189654
##  3     0.012 0.3947976 2.126863
##  4     0.013 0.4181274 2.071231
##  5     0.014 0.4408973 2.023309
##  6     0.015 0.4630605 1.982573
##  7     0.016 0.4845110 1.947912
##  8     0.017 0.5051165 1.917947
##  9     0.018 0.5247438 1.891276
## 10     0.019 0.5432788 1.866645
## # ... with 481 more rows
…
